// define CDT
Type 0, 0, 0, 0, 0, 0, 0, 0, 0, 0, 0, 0, 0, 0, 0, 0, 0, 0, 0, 12, 1
AccumIndex 0, 0, 0, 0, 0, 0, 0, 0, 0, 0, 0, 0, 0, 0, 0, 0, 0, 0, 0, 0, 1
HostGroupID 0, 0, 0, 0, 0, 0, 0, 0, 0, 0, 0, 0, 0, 0, 0, 0, 0, 0, 0, 0, 0
PANLo "400000", "340000", "370000", "510000", "62212600", "62400000", "62820000", "64400000", "65000000", "39000000", "380000", "360000", "300000", "601100", "18000", "21310", "352800", "2014", "2140", "000000", "000000"
PANHi "499999", "349999", "379999", "559999", "62292599", "62699999", "62889999", "64499999", "65999999", "39999999", "389999", "369999", "309999", "609999", "18999", "21319", "358999", "2015", "2150", "999999", "999999"
MinPANDigit 13, 15, 15, 16, 16, 16, 16, 16, 16, 16, 14, 14, 14, 16, 15, 15, 16, 15, 15, 16, 13
MaxPANDigit 16, 15, 15, 16, 16, 16, 16, 16, 16, 16, 14, 14, 14, 16, 15, 15, 16, 15, 15, 20, 19
AVS 1, 1, 1, 1, 1, 1, 1, 1, 1, 1, 1, 1, 1, 1, 0, 0, 1, 0, 0, 0, 0
IssuerID "", "", "", "", "", "", "", "", "", "", "", "", "", "", "", "", "", "",  "", "", ""
IssuerNum 1, 2, 2, 3, 4, 4, 4, 4, 4, 4, 4, 4, 4, 4, 9, 9, 6, 7, 7, 11 , 8
TipDiscount 0, 0, 0, 0, 0, 0, 0, 0, 0, 0, 0, 0, 0, 0, 0, 0, 0, 0, 0, 0, 0
FloorLimitAmount 0, 0, 0, 0, 0, 0, 0, 0, 0, 0, 0, 0, 0, 0, 0, 0, 0, 0, 0, 0, 0
CVV_II 2, 2, 2, 2, 3, 3, 3, 3, 3, 3, 3, 3, 3, 3, 0, 0, 3, 0, 0, 0 ,0 
PaymentIndex 0, 0, 0, 0, 0, 0, 0, 0, 0, 0, 0, 0, 0, 0, 0, 0, 0, 0, 0, 0, 0
CDTCustomInt 0, 0, 0, 0, 0, 0, 0, 0, 0, 0, 0, 0, 0, 0, 0, 0, 0, 0, 0, 0, 0
CardAbbrev "VI", "AX", "AX", "MC", "DS", "DS", "DS", "DS", "DS", "DS", "DS", "DS", "DS", "DS", "JA", "JA", "JB", "EN", "EN",  "GF", "DB"
CardLabel "VISA", "AMEX", "AMEX", "MASTERCARD", "DISCOVER", "DISCOVER", "DISCOVER", "DISCOVER", "DISCOVER", "DISCOVER", "DISCOVER", "DISCOVER", "DISCOVER", "DISCOVER", "JAL", "JAL", "JCB", "ENROUTE", "ENROUTE", "GIFT", "DEBIT"
IPCLabel "VISA", "AMEX", "AMEX", "MC", "DISC", "DISC", "DISC", "DISC", "DISC", "DISC", "DISC", "DISC", "DISC", "DISC", "JAL", "JAL", "JCB", "ENRT", "ENRT", "GIFT", "DEBIT"
IPCProcessor "", "", "", "", "", "", "", "", "", "", "", "", "", "", "", "", "", "", "", "", ""
TracksRequired "2", "2", "2", "2", "2", "2", "2", "2", "2", "2", "2", "2", "2", "2", "2", "2", "2", "2", "2", "2", "2"
BatchAuthFloorLimitAmt 0, 0, 0, 0, 0, 0, 0, 0, 0, 0, 0, 0, 0, 0, 0, 0, 0, 0, 0, 0, 0
ReceiptLimitAmount 0, 0, 0, 0, 0, 0, 0, 0, 0, 0, 0, 0, 0, 0, 0, 0, 0, 0, 0, 0, 0
SignLimitAmount 0, 0, 0, 0, 0, 0, 0, 0, 0, 0, 0, 0, 0, 0, 0, 0, 0, 0, 0, 0, 0
/* FPSPrintOption 18 = PRT_BOTH_AUTO_CUSTCOPY */
FPSPrintOption 18, 18, 18, 18, 18, 18, 18, 18, 18, 18, 18, 18, 18, 18, 18, 18, 18, 18, 18, 18, 18
GiftAmtMin 0, 0, 0, 0, 0, 0, 0, 0, 0, 0, 0, 0, 0, 0, 0, 0, 0, 0, 0, 500, 0
GiftAmtMax 0, 0, 0, 0, 0, 0, 0, 0, 0, 0, 0, 0, 0, 0, 0, 0, 0, 0, 0, 50000, 0
DisableCardRange 1, 1, 1, 1, 1, 1, 1, 1, 1, 1, 1, 1, 1, 1, 1, 1, 1, 1, 1, 0, 0 
EnableFPS 0, 0, 0, 0, 0, 0, 0, 0, 0, 0, 0, 0, 0, 0, 0, 0, 0, 0, 0, 0, 0 
TaxExempt 0, 0, 0, 0, 0, 0, 0, 0, 0, 0, 0, 0, 0, 0, 0, 0, 0, 0, 0, 0, 0
VisaCard 1, 0, 0, 0, 0, 0, 0, 0, 0, 0, 0, 0, 0, 0, 0, 0, 0, 0, 0, 0, 0
MasterCard 0, 0, 0, 1, 0, 0, 0, 0, 0, 0, 0, 1, 0, 0, 0, 0, 0, 0, 0, 0, 0
AmexCard 0, 1, 1, 0, 0, 0, 0, 0, 0, 0, 0, 0, 0, 0, 0, 0, 0, 0, 0, 0, 0
DiscCard 0, 0, 0, 0, 1, 1, 1, 1, 1, 1, 0, 0, 0, 1, 0, 0, 0, 0, 0, 0, 0
JCBCard 0, 0, 0, 0, 0, 0, 0, 0, 0, 0, 0, 0, 0, 0, 0, 0, 1, 0, 0, 0, 0
ChkLuhn 1, 1, 1, 1, 1, 1, 1, 1, 1, 1, 1, 1, 1, 1, 1, 1, 1, 1, 1, 0, 0
ExpDtReqd 1, 1, 1, 1, 1, 1, 1, 1, 1, 1, 1, 1, 1, 1, 1, 1, 1, 1, 1, 0, 0
ManEntry 1, 1, 1, 1, 1, 1, 1, 1, 1, 1, 1, 1, 1, 1, 1, 1, 1, 1, 1, 1, 0 
AllowMultiCurr 0, 0, 0, 0, 0, 0, 0, 0, 0, 0, 0, 0, 0, 0, 0, 0, 0, 0, 0, 0, 0
SignLine 1, 1, 1, 1, 1, 1, 1, 1, 1, 1, 1, 1, 1, 1, 1, 1, 1, 1, 1, 0, 0
CardPresent 1, 1, 1, 1, 1, 1, 1, 1, 1, 1, 1, 1, 1, 1, 0, 0, 1, 0, 0, 1, 0
PinpadRequired 0, 0, 0, 0, 0, 0, 0, 0, 0, 0, 0, 0, 0, 0, 0, 0, 0, 0, 0, 0, 1
PrntrRequired 0, 0, 0, 0, 0, 0, 0, 0, 0, 0, 0, 0, 0, 0, 0, 0, 0, 0, 0, 0, 1